ocid,id,contracts/0/id,contracts/0/implementation/purcharseOrders/0/id,contracts/0/implementation/purcharseOrders/0/excecutionPeriod/s,contracts/0/implementation/purcharseOrders/0/excecutionPeriod/e,contracts/0/implementation/purcharseOrders/0/title,contracts/0/implementation/purcharseOrders/0/status
ocds-03ad3f-363958,ocds-03ad3f-363958-2019-05-03T17:03:20Z,363958-ignacio-javier-edwars-rojas-1,1,2019-04-23T00:00:00Z,2019-05-23T00:00:00Z,ORDEN DE INICIO,terminated
ocds-03ad3f-363658,ocds-03ad3f-363658-2019-05-16T17:17:05Z,363658-eliezer-manuel-caballero-amarilla-1,010/2019,2019-05-23T00:00:00Z,2019-12-26T22:00:00Z,ADQUISICION DE TINTA Y TONER,active
ocds-03ad3f-364355,ocds-03ad3f-364355-2019-04-25T16:33:21Z,364355-luciano-irala-ferreira-1,013/2019,2019-05-31T00:00:00Z,2019-12-29T22:00:00Z,ADQUISICIÓN DE MEDICAMENTOS,active
ocds-03ad3f-364753,ocds-03ad3f-364753-2019-05-16T08:38:08Z,364753-eliezer-manuel-caballero-amarilla-1,011/2019,2019-05-23T00:00:00Z,2019-12-26T22:00:00Z,ADQUISICION DE UTILES DE OFICINA,active
ocds-03ad3f-361925,ocds-03ad3f-361925-2019-05-03T17:01:42Z,361925-castulo-gamarra-rolon-1,1,2019-04-22T00:00:00Z,2019-05-14T00:00:00Z,ORDEN DE INICIO,terminated
ocds-03ad3f-363661,ocds-03ad3f-363661-2019-05-13T17:17:44Z,363661-marcos-manuel-duarte-arguello-1,00,2019-05-22T00:00:00Z,2019-11-17T22:00:00Z,ACTA DE SUSPENSION DE PLAZO,active
ocds-03ad3f-363661,ocds-03ad3f-363661-2019-05-13T17:17:44Z,363661-marcos-manuel-duarte-arguello-1,012/2019,2019-05-20T00:00:00Z,2019-09-20T00:00:00Z,CONSTRUCCION PARA LA SEDE DE LA MUNICIPALIDAD DEL DISTRITO DE JOSE M. BRUGUEZ,active
ocds-03ad3f-358011,ocds-03ad3f-358011-2019-05-13T15:40:49Z,358011-kuatiapo-s-a-1,01/2019,2019-06-14T00:00:00Z,2019-06-21T00:00:00Z,Adquisición de Resmas Parcial ,active
ocds-03ad3f-364653,ocds-03ad3f-364653-2019-05-06T15:52:50Z,364653-dalmi-srl-1,53/19,2019-05-23T00:00:00Z,2019-06-25T00:00:00Z,PROVISIÓN DE CAJAS PARA ARCHIVO,active
ocds-03ad3f-364653,ocds-03ad3f-364653-2019-05-06T15:52:50Z,364653-dalmi-srl-1,72/19,2019-07-23T00:00:00Z,2019-08-05T00:00:00Z,PROVISIÓN DE CAJAS PARA ARCHIVO,active
ocds-03ad3f-361936,ocds-03ad3f-361936-2019-06-07T00:00:00Z,361936-ambrosio-coronel-1,1,2019-04-26T00:00:00Z,2019-05-18T00:00:00Z,ORDEN DE INICIO,terminated
ocds-03ad3f-362788,ocds-03ad3f-362788-2019-05-27T16:43:18Z,362788-maria-asuncion-acevedo-barquinero-1,1466,2019-06-06T00:00:00Z,2019-06-28T00:00:00Z,Moviliarios para sala de audiencia,terminated
ocds-03ad3f-364992,ocds-03ad3f-364992-2019-05-30T18:05:27Z,364992-dep-mat-fin-srl-1,12/2019,2019-06-21T00:00:00Z,2019-06-25T00:00:00Z,PRIMERA ORDEN DE COMPRA PARA PROVISION DE MATERIALES DE CONSTRUCCION,active
ocds-03ad3f-363660,ocds-03ad3f-363660-2019-05-02T17:26:07Z,363660-edgar-isidoro-mendoza-vera-1,008/2019,2019-05-06T00:00:00Z,2019-12-29T22:00:00Z,ADQUISICION DE RIPIO PARA RELLENO DE CALLES,active
ocds-03ad3f-348389,ocds-03ad3f-348389-2019-05-22T17:22:26Z,348389-el-castillo-s-a-2,27,2019-07-18T00:00:00Z,2019-08-01T00:00:00Z,Adquisición de Elementos de Limpieza,active
ocds-03ad3f-363959,ocds-03ad3f-363959-2019-05-03T17:04:11Z,363959-ambrosio-coronel-1,1,2019-04-23T00:00:00Z,2019-05-15T00:00:00Z,ORDEN DE INICIO,terminated
ocds-03ad3f-358390,ocds-03ad3f-358390-2019-05-27T17:40:01Z,358390-laura-griselda-sosa-rios-4,08/2019,2019-06-12T00:00:00Z,2017-06-26T00:00:00Z,"PROVISION DE FUNGICIDA - MANCOZEB POLVO, PROCEDENCIA INDIA, MARCA DINCOZEB BLUE WP.",active
ocds-03ad3f-358390,ocds-03ad3f-358390-2019-05-27T17:40:01Z,358390-chemtec-s-a-e-5,09/2019,2019-06-13T00:00:00Z,2019-06-27T00:00:00Z,PROVISION DE FUNGICIDA - PROPICONAZOLE LIQUIDO - PROCEDENCIA NACIONAL. MARCA APROZOL 50%,active
ocds-03ad3f-358390,ocds-03ad3f-358390-2019-05-27T17:40:01Z,358390-roberto-damiano-becvort-meza-3,10/2019,2019-06-12T00:00:00Z,2019-06-26T00:00:00Z,"PROVISION DE FUNGICIDA - PYRACLOSTROBIN + EPOXICONAZOLE LIQUIDO, PROCEDENCIA BRASIL, MARCA OPERA.",active
