ocid,Release ID,Contracts:Contract ID,Contracts:Implementation:Milestones:ID,Open Contracting ID,Contracts:Implementation:Milestones:Documents:ID,Contracts:Implementation:Milestones:Documents:Date published,Contracts:Implementation:Milestones:Documents:Format,Contracts:Implementation:Milestones:Documents:Title,Contracts:Implementation:Milestones:Documents:URL,Contracts:Implementation:Milestones:Documents:Language,Contracts:Implementation:Milestones:Documents:Document type
,ocds-03ad3f-363958-2019-05-03T17:03:20Z,363958-ignacio-javier-edwars-rojas-1,acta-recepcion-provisoria-reservas2019-05-23,ocds-03ad3f-363958,1454d28ea121df29e7684f5b7b0d9bd7,2019-06-03T12:26:32Z,application/pdf,acta_de_recepcion_31052019141019_1559579191482.pdf,https://www.contrataciones.gov.py/documentos/download/contrato_detalle_entregable/1454d28ea121df29e7684f5b7b0d9bd7,es,Acta de Recepción Provisoria
,ocds-03ad3f-363958-2019-05-03T17:03:20Z,363958-ignacio-javier-edwars-rojas-1,acta-recepcion-provisoria-reservas2019-05-23,ocds-03ad3f-363958,56997398843605ead2cc68303ad69465,2019-06-03T12:37:25Z,application/pdf,acta_de_recepcion_31052019141019_1559579844754.pdf,https://www.contrataciones.gov.py/documentos/download/contrato_detalle_entregable/56997398843605ead2cc68303ad69465,es,Acta de Recepción Provisoria
,ocds-03ad3f-361925-2019-05-03T17:01:42Z,361925-castulo-gamarra-rolon-1,acta-recepcion-provisoria-reservas2019-05-14,ocds-03ad3f-361925,db93e1f9860b074ef224878a047a5407,2019-06-03T13:00:01Z,application/pdf,acta_de_recepcion_31052019143001_1559581200790.pdf,https://www.contrataciones.gov.py/documentos/download/contrato_detalle_entregable/db93e1f9860b074ef224878a047a5407,es,Acta de Recepción Provisoria
,ocds-03ad3f-358011-2019-05-13T15:40:49Z,358011-kuatiapo-s-a-1,kuatiapo2019-06-21,ocds-03ad3f-358011,8afb5804f92f8d5f149bfc66d149aa92,2019-07-10T08:24:12Z,application/pdf,nota_de_remisi_n_1_1__1562761451926.pdf,https://www.contrataciones.gov.py/documentos/download/contrato_detalle_entregable/8afb5804f92f8d5f149bfc66d149aa92,es,Nota de Remisión
,ocds-03ad3f-364653-2019-05-06T15:52:50Z,364653-dalmi-srl-1,cajas-cartones-archivo-dalmi-s-r-l-2019-06-26,ocds-03ad3f-364653,d92ea9b81f514a1f8c2330f1b579bf21,2019-07-08T14:40:25Z,application/pdf,remision_1957_19_orden_53_1562611224905.pdf,https://www.contrataciones.gov.py/documentos/download/contrato_detalle_entregable/d92ea9b81f514a1f8c2330f1b579bf21,es,Nota de Remisión
,ocds-03ad3f-361936-2019-06-07T00:00:00Z,361936-ambrosio-coronel-1,acta-recepcion-provisoria-reservas2019-05-18,ocds-03ad3f-361936,69ebf66b3de72cc233fe47eb0cb8d48f,2019-06-08T09:45:31Z,application/pdf,acta_de_recepcion_31052019140637_1560001531249.pdf,https://www.contrataciones.gov.py/documentos/download/contrato_detalle_entregable/69ebf66b3de72cc233fe47eb0cb8d48f,es,Acta de Recepción Provisoria
,ocds-03ad3f-361936-2019-06-07T00:00:00Z,361936-ambrosio-coronel-1,certificado-obras-n-12019-05-18,ocds-03ad3f-361936,def78796fba346e2de53c5120e3c5cf5,2019-06-08T09:44:45Z,application/pdf,certificado_de_obras_08062019152117_1560001485181.pdf,https://www.contrataciones.gov.py/documentos/download/contrato_detalle_entregable/def78796fba346e2de53c5120e3c5cf5,es,Acta de Entrega
,ocds-03ad3f-362788-2019-05-27T16:43:18Z,362788-maria-asuncion-acevedo-barquinero-1,moviliarios-sala-audiencia2019-06-28,ocds-03ad3f-362788,8bdd659454df000dda6721e217aaa204,2019-07-03T09:58:41Z,application/pdf,nota_de_remisi_n101_1562162321088.pdf,https://www.contrataciones.gov.py/documentos/download/contrato_detalle_entregable/8bdd659454df000dda6721e217aaa204,es,Nota de Remisión
,ocds-03ad3f-363959-2019-05-03T17:04:11Z,363959-ambrosio-coronel-1,acta-recepcion-provisoria-reservas2019-05-15,ocds-03ad3f-363959,87c7574c5d15873bb3e824068262daa6,2019-06-06T12:32:04Z,application/pdf,acta_de_recepcion_31052019135755_1559838723458.pdf,https://www.contrataciones.gov.py/documentos/download/contrato_detalle_entregable/87c7574c5d15873bb3e824068262daa6,es,Acta de Recepción Provisoria
,ocds-03ad3f-358390-2019-05-27T17:40:01Z,358390-chemtec-s-a-e-5,acta-entrega2019-06-26,ocds-03ad3f-358390,7cb74407125873315ea8225aacd97e6d,2019-07-22T13:08:06Z,application/pdf,acta_de_recepcion_final_roberto_damanio_becvort_meza_1563815285773.pdf,https://www.contrataciones.gov.py/documentos/download/contrato_detalle_entregable/7cb74407125873315ea8225aacd97e6d,es,Acta de Entrega
,ocds-03ad3f-358390-2019-05-27T17:40:01Z,358390-chemtec-s-a-e-5,acta-entrega2019-06-26,ocds-03ad3f-358390,ce182c417ca31f93b03690507fa78f83,2019-07-22T13:08:06Z,application/pdf,acta_de_recepcion_final_roberto_damanio_becvort_meza_1563815285668.pdf,https://www.contrataciones.gov.py/documentos/download/contrato_detalle_entregable/ce182c417ca31f93b03690507fa78f83,es,Acta de Entrega
